Exploratory data analysis of ‘New York Flights’ dataset
…
Key features of the data

The first step of our EDA consists of inspecting a sample of observations, aka a data preview. At this stage, good practices include:

Interpreting the variables from a business, economic, or social perspective (depending on the nature of the dataset at hand and the project’s concrete objectives)

Understanding the type of each individual column in the data (e.g., string, factor, number)

Code

nyf

# A tibble: 336,776 × 19
    year month   day dep_time sched_dep_time dep_delay arr_time sched_arr_time
   <dbl> <dbl> <dbl>    <dbl>          <dbl>     <dbl>    <dbl>          <dbl>
 1  2013     1     1      517            515         2      830            819
 2  2013     1     1      533            529         4      850            830
 3  2013     1     1      542            540         2      923            850
 4  2013     1     1      544            545        -1     1004           1022
 5  2013     1     1      554            600        -6      812            837
 6  2013     1     1      554            558        -4      740            728
 7  2013     1     1      555            600        -5      913            854
 8  2013     1     1      557            600        -3      709            723
 9  2013     1     1      557            600        -3      838            846
10  2013     1     1      558            600        -2      753            745
# ℹ 336,766 more rows
# ℹ 11 more variables: arr_delay <dbl>, carrier <chr>, flight <dbl>,
#   tailnum <chr>, origin <chr>, dest <chr>, air_time <dbl>, distance <dbl>,
#   hour <dbl>, minute <dbl>, time_hour <dttm>
…
Expanding on the previous section, we plot the distribution of arr_delay by month AND day. This requires creating a three-variate visual form. First, we have to summarize arr_delay across unique combinations of month and data:

Code

cols <- c("month", "day")
z <- nyf |> group_by(across(all_of(cols))) |> summarize(avg = mean(arr_delay))

`summarise()` has grouped output by 'month'. You can override using the
`.groups` argument.

Code

print(z)

# A tibble: 365 × 3
# Groups:   month [12]
   month   day   avg
   <dbl> <dbl> <dbl>
 1     1     1  34.4
 2     1     2  34.8
 3     1     3  30.2
 4     1     4  31.2
 5     1     5  25.4
 6     1     6  27.0
 7     1     7  30.3
 8     1     8  23.4
 9     1     9  27.2
10     1    10  32.6
# ℹ 355 more rows
…
