practice_1 – SMM635 - Data Visualization
…
Data Preview

apps

# A tibble: 10,841 × 13
   App       Category Rating Reviews Size  Installs Type  Price `Content Rating`
   <chr>     <chr>     <dbl>   <dbl> <chr> <chr>    <chr> <chr> <chr>           
 1 Photo Ed… ART_AND…    4.1     159 19M   10,000+  Free  0     Everyone        
 2 Coloring… ART_AND…    3.9     967 14M   500,000+ Free  0     Everyone        
 3 U Launch… ART_AND…    4.7   87510 8.7M  5,000,0… Free  0     Everyone        
 4 Sketch -… ART_AND…    4.5  215644 25M   50,000,… Free  0     Teen            
 5 Pixel Dr… ART_AND…    4.3     967 2.8M  100,000+ Free  0     Everyone        
 6 Paper fl… ART_AND…    4.4     167 5.6M  50,000+  Free  0     Everyone        
 7 Smoke Ef… ART_AND…    3.8     178 19M   50,000+  Free  0     Everyone        
 8 Infinite… ART_AND…    4.1   36815 29M   1,000,0… Free  0     Everyone        
 9 Garden C… ART_AND…    4.4   13791 33M   1,000,0… Free  0     Everyone        
10 Kids Pai… ART_AND…    4.7     121 3.1M  10,000+  Free  0     Everyone        
# ℹ 10,831 more rows
# ℹ 4 more variables: Genres <chr>, `Last Updated` <chr>, `Current Ver` <chr>,
#   `Android Ver` <chr>
…
