Maps with ggplot2
…
1.2 Pick up the preferred theme

Code

theme_set(theme_minimal())

1.3 Load election data from the socviz package

K. Healy’s socviz package provides us with the election dataset. The dataset contains various measures of the vote and vote shares by state. FYI: Kieran Healy is a sociologist at Duke University, and the author of the book “Data Visualization: A Practical Introduction”, a core reading for SMM635.

Code

election

# A tibble: 51 × 22
   state     st     fips total_vote vote_margin winner party pct_margin r_points
   <chr>     <chr> <dbl>      <dbl>       <dbl> <chr>  <chr>      <dbl>    <dbl>
 1 Alabama   AL        1    2123372      588708 Trump  Repu…     0.277     27.7 
 2 Alaska    AK        2     318608       46933 Trump  Repu…     0.147     14.7 
 3 Arizona   AZ        4    2604657       91234 Trump  Repu…     0.035      3.5 
 4 Arkansas  AR        5    1130635      304378 Trump  Repu…     0.269     26.9 
 5 Californ… CA        6   14237893     4269978 Clint… Demo…     0.300    -30.0 
 6 Colorado  CO        8    2780247      136386 Clint… Demo…     0.0491    -4.91
 7 Connecti… CT        9    1644920      224357 Clint… Demo…     0.136    -13.6 
 8 Delaware  DE       10     443814       50476 Clint… Demo…     0.114    -11.4 
 9 District… DC       11     311268      270107 Clint… Demo…     0.868    -86.8 
10 Florida   FL       12    9502747      112911 Trump  Repu…     0.0119     1.19
# ℹ 41 more rows
# ℹ 13 more variables: d_points <dbl>, pct_clinton <dbl>, pct_trump <dbl>,
#   pct_johnson <dbl>, pct_other <dbl>, clinton_vote <dbl>, trump_vote <dbl>,
#   johnson_vote <dbl>, other_vote <dbl>, ev_dem <dbl>, ev_rep <dbl>,
#   ev_oth <dbl>, census <chr>
…
