Exploratory data analysis of Koop and Tobias’ dataset
…
Key features of the data

The first step of our EDA consists of inspecting a sample of observations, aka a data preview. At this stage, good practices include:

Interpreting the variables from a business, economic, or social perspective (depending on the nature of the dataset at hand and the project’s concrete objectives)

Understanding the type of each individual column in the data (e.g., string, factor, number)

Code

kt

# A tibble: 17,919 × 10
   PERSONID  EDUC LOGWAGE POTEXPER TIMETRND ABILITY MOTHERED FATHERED BRKNHOME
      <dbl> <dbl>   <dbl>    <dbl>    <dbl>   <dbl>    <dbl>    <dbl>    <dbl>
 1        1    13    1.82        1        0     1         12       12        0
 2        1    18    3.29        3        7     1         12       12        0
 3        1    18    3.21        5        9     1         12       12        0
 4        1    18    3.06        6       10     1         12       12        0
 5        2    15    2.14        4        6     1.5       12       12        0
 6        2    15    2.3         5        7     1.5       12       12        0
 7        2    15    2.4         6        8     1.5       12       12        0
 8        2    15    2.46        7        9     1.5       12       12        0
 9        2    15    2.51        8       10     1.5       12       12        0
10        2    15    2.5         9       11     1.5       12       12        0
# ℹ 17,909 more rows
# ℹ 1 more variable: SIBLINGS <dbl>
…
