Choosing colors and shapes in ggplot2
…
Rows: 1303 Columns: 13
── Column specification ────────────────────────────────────────────────────────
Delimiter: ","
chr (10): Company, Product, TypeName, ScreenResolution, Cpu, Ram, Memory, Gp...
dbl  (3): laptop_ID, Inches, Price_euros

ℹ Use `spec()` to retrieve the full column specification for this data.
ℹ Specify the column types or set `show_col_types = FALSE` to quiet this message.

Code

df

# A tibble: 1,303 × 13
   laptop_ID Company Product TypeName Inches ScreenResolution Cpu   Ram   Memory
       <dbl> <chr>   <chr>   <chr>     <dbl> <chr>            <chr> <chr> <chr> 
 1         1 Apple   MacBoo… Ultrabo…   13.3 IPS Panel Retin… Inte… 8GB   128GB…
 2         2 Apple   Macboo… Ultrabo…   13.3 1440x900         Inte… 8GB   128GB…
 3         3 HP      250 G6  Notebook   15.6 Full HD 1920x10… Inte… 8GB   256GB…
 4         4 Apple   MacBoo… Ultrabo…   15.4 IPS Panel Retin… Inte… 16GB  512GB…
 5         5 Apple   MacBoo… Ultrabo…   13.3 IPS Panel Retin… Inte… 8GB   256GB…
 6         6 Acer    Aspire… Notebook   15.6 1366x768         AMD … 4GB   500GB…
 7         7 Apple   MacBoo… Ultrabo…   15.4 IPS Panel Retin… Inte… 16GB  256GB…
 8         8 Apple   Macboo… Ultrabo…   13.3 1440x900         Inte… 8GB   256GB…
 9         9 Asus    ZenBoo… Ultrabo…   14   Full HD 1920x10… Inte… 16GB  512GB…
10        10 Acer    Swift 3 Ultrabo…   14   IPS Panel Full … Inte… 8GB   256GB…
# ℹ 1,293 more rows
# ℹ 4 more variables: Gpu <chr>, OpSys <chr>, Weight <chr>, Price_euros <dbl>
…
